Capstone ML : Scotty Time Series Forecasting
…
scotty_nest_model <- scotty_nest_model %>%
  mutate(
    params = map(train, ~ list(x = .x)),
    data = invoke_map(data_fun, params),
    params = map(data, ~ list(x = .x)),
    fitted = invoke_map(model, params)
  ) %>%
  select(-data, -params)

## Warning in HoltWinters(x, seasonal = "additive"): optimization
## difficulties: ERROR: ABNORMAL_TERMINATION_IN_LNSRCH

scotty_nest_model

## # A tibble: 24 x 8
##    src_sub_area test   train data_fun_name data_fun model_name model fitted
##    <chr>        <list> <lis> <chr>         <list>   <chr>      <lis> <list>
##  1 sxk97        <tibb <tib ts            <fn>     ets        <fn>  <ets> 
##  2 sxk97        <tibb <tib ts            <fn>     stlm       <fn>  <stlm>
##  3 sxk97        <tibb <tib ts            <fn>     tbats      <fn>  <tbat
##  4 sxk97        <tibb <tib ts            <fn>     auto.arima <fn>  <fr_A
##  5 sxk97        <tibb <tib ts            <fn>     holt.wint <fn>  <HltW
##  6 sxk97        <tibb <tib msts          <fn>     stlm       <fn>  <stlm>
##  7 sxk97        <tibb <tib msts          <fn>     tbats      <fn>  <tbat
##  8 sxk97        <tibb <tib msts          <fn>     holt.wint <fn>  <HltW
##  9 sxk9e        <tibb <tib ts            <fn>     ets        <fn>  <ets> 
## 10 sxk9e        <tibb <tib ts            <fn>     stlm       <fn>  <stlm>
## #  with 14 more rows

Evaluation

This subsection will show error calculation for the prediction that is done toward data test by each model

scotty_error <- scotty_nest_model %>% 
  mutate(error =
           map(fitted, ~ forecast(.x, h = 24 * 7)) %>% 
           map2_dbl(test, ~ mae_vec(truth = rec_revert(.y$demand, rec, src_sub_area), estimate = rec_revert(.x$mean, rec, src_sub_area)))) %>% 
  arrange(src_sub_area, error)

scotty_error %>% 
  select(src_sub_area, ends_with("_name"), error)

## # A tibble: 24 x 4
##    src_sub_area data_fun_name model_name   error
##    <chr>        <chr>         <chr>        <dbl>
##  1 sxk97        msts          tbats        10.1 
##  2 sxk97        msts          stlm         11.2 
##  3 sxk97        msts          holt.winters 11.3 
##  4 sxk97        ts            ets          11.8 
##  5 sxk97        ts            tbats        11.9 
##  6 sxk97        ts            holt.winters 12.1 
##  7 sxk97        ts            stlm         12.4 
##  8 sxk97        ts            auto.arima   15.2 
##  9 sxk9e        msts          tbats         7.57
## 10 sxk9e        msts          holt.winters  7.98
## #  with 14 more rows
…
# forecast to dataset
scotty_test <- scotty_error %>% 
  mutate(
    forecast =
      map(fitted, ~ forecast(.x, h = 24 * 7)) %>% 
      map2(test, ~ tibble(
        datetime = .y$datetime,
        demand = as.vector(.x$mean)
      )),
    key = paste(data_fun_name, model_name, sep = "-")
  )

scotty_test

## # A tibble: 24 x 11
##    src_sub_area test  train data_fun_name data_fun model_name model fitted
##    <chr>        <lis> <lis> <chr>         <list>   <chr>      <lis> <list>
##  1 sxk97        <tib <tib msts          <fn>     tbats      <fn>  <tbat
##  2 sxk97        <tib <tib msts          <fn>     stlm       <fn>  <stlm>
##  3 sxk97        <tib <tib msts          <fn>     holt.wint <fn>  <HltW
##  4 sxk97        <tib <tib ts            <fn>     ets        <fn>  <ets> 
##  5 sxk97        <tib <tib ts            <fn>     tbats      <fn>  <tbat
##  6 sxk97        <tib <tib ts            <fn>     holt.wint <fn>  <HltW
##  7 sxk97        <tib <tib ts            <fn>     stlm       <fn>  <stlm>
##  8 sxk97        <tib <tib ts            <fn>     auto.arima <fn>  <fr_A
##  9 sxk9e        <tib <tib msts          <fn>     tbats      <fn>  <tbat
## 10 sxk9e        <tib <tib msts          <fn>     holt.wint <fn>  <HltW
## #  with 14 more rows, and 3 more variables: error <dbl>, forecast <list>,
## #   key <chr>
…
The unnest data is shown below.

scottyfull_unnest

## # A tibble: 5,040 x 4
##    src_sub_area key    datetime            demand
##    <chr>        <chr>  <dttm>               <dbl>
##  1 sxk97        actual 2017-10-01 00:00:00      6
##  2 sxk97        actual 2017-10-01 01:00:00      4
##  3 sxk97        actual 2017-10-01 02:00:00      9
##  4 sxk97        actual 2017-10-01 03:00:00      2
##  5 sxk97        actual 2017-10-01 04:00:00      5
##  6 sxk97        actual 2017-10-01 05:00:00      4
##  7 sxk97        actual 2017-10-01 06:00:00      1
##  8 sxk97        actual 2017-10-01 07:00:00      0
##  9 sxk97        actual 2017-10-01 08:00:00      3
## 10 sxk97        actual 2017-10-01 09:00:00      3
## #  with 5,030 more rows

data_test <- scottyfull_unnest %>% 
  filter(datetime %within% intest) %>% 
  select(src_sub_area, datetime, demand)

data_test

## # A tibble: 504 x 3
##    src_sub_area datetime            demand
##    <chr>        <dttm>               <dbl>
##  1 sxk97        2017-11-26 00:00:00     38
##  2 sxk97        2017-11-26 01:00:00     21
##  3 sxk97        2017-11-26 02:00:00     10
##  4 sxk97        2017-11-26 03:00:00     10
##  5 sxk97        2017-11-26 04:00:00      5
##  6 sxk97        2017-11-26 05:00:00      2
##  7 sxk97        2017-11-26 06:00:00      0
##  8 sxk97        2017-11-26 07:00:00     11
##  9 sxk97        2017-11-26 08:00:00      4
## 10 sxk97        2017-11-26 09:00:00      4
## #  with 494 more rows
…
Select only the required columns:

submission <- submission %>%
  select(src_sub_area, forecast) %>%
  unnest(forecast) %>%
  mutate(demand = rec_revert(demand, rec, src_sub_area))

submission

## # A tibble: 504 x 3
##    src_sub_area datetime            demand
##    <chr>        <dttm>               <dbl>
##  1 sxk97        2017-12-03 00:00:00     18
##  2 sxk97        2017-12-03 01:00:00     15
##  3 sxk97        2017-12-03 02:00:00     11
##  4 sxk97        2017-12-03 03:00:00      7
##  5 sxk97        2017-12-03 04:00:00      5
##  6 sxk97        2017-12-03 05:00:00      3
##  7 sxk97        2017-12-03 06:00:00      2
##  8 sxk97        2017-12-03 07:00:00      6
##  9 sxk97        2017-12-03 08:00:00     12
## 10 sxk97        2017-12-03 09:00:00     12
## #  with 494 more rows
…
